{
  "_class": "group",
  "do_objectID": "50C90041-58E3-40DB-B313-6E32146BA465",
  "exportOptions": {
    "_class": "exportOptions",
    "exportFormats": [
    ],
    "includedLayerIds": [
    ],
    "layerOptions": 0,
    "shouldTrim": false
  },
  "frame": {
    "_class": "rect",
    "constrainProportions": false,
    "height": 2097,
    "width": 97,
    "x": 1206,
    "y": 120
  },
  "hasClickThrough": false,
  "isFlippedHorizontal": false,
  "isFlippedVertical": false,
  "isLocked": false,
  "isVisible": true,
  "layerListExpandedType": 0,
  "layers": [
    {
      "class": "shapeGroup",
      "id": "5F002861-F9D5-47CD-9DAF-2D0877911EAA"
    },
    {
      "class": "shapeGroup",
      "id": "A25926D4-B946-4EDB-B3FB-9458D1F915BD"
    },
    {
      "class": "shapeGroup",
      "id": "EE3447A3-E29F-483D-AB0C-9F5F96E175D3"
    },
    {
      "class": "shapeGroup",
      "id": "80FC8686-F8A9-414C-8FA0-E814BCD62FAB"
    },
    {
      "class": "group",
      "id": "CBF4D8B4-F3A2-4D3F-9F3A-5D85CB63836E"
    }
  ],
  "name": "milestone",
  "nameIsFixed": true,
  "resizingConstraint": 63,
  "resizingType": 0,
  "rotation": 0,
  "shouldBreakMaskChain": false,
  "style": {
    "_class": "style",
    "endDecorationType": 0,
    "miterLimit": 10,
    "startDecorationType": 0
  }
}