{
  "_class": "group",
  "do_objectID": "0BD76286-00FA-40CF-AEF5-31C0A0A176E8",
  "exportOptions": {
    "_class": "exportOptions",
    "exportFormats": [
    ],
    "includedLayerIds": [
    ],
    "layerOptions": 0,
    "shouldTrim": false
  },
  "frame": {
    "_class": "rect",
    "constrainProportions": false,
    "height": 28,
    "width": 96,
    "x": 0.5,
    "y": 0
  },
  "hasClickThrough": false,
  "isFlippedHorizontal": false,
  "isFlippedVertical": false,
  "isLocked": false,
  "isVisible": false,
  "layerListExpandedType": 0,
  "layers": [
    {
      "class": "shapeGroup",
      "id": "CB6019FA-3C51-4077-9668-1C5F2F6E9BA4"
    },
    {
      "class": "shapeGroup",
      "id": "99503556-F9B3-491E-A105-91898FCCD5CF"
    },
    {
      "class": "text",
      "id": "E525283D-643E-4A81-A4BE-D7319A0DFB21"
    }
  ],
  "name": "global-components/tooltips/top",
  "nameIsFixed": false,
  "resizingConstraint": 63,
  "resizingType": 0,
  "rotation": 0,
  "shouldBreakMaskChain": false,
  "style": {
    "_class": "style",
    "endDecorationType": 0,
    "miterLimit": 10,
    "startDecorationType": 0
  }
}